%YAML 1.1
%TAG !u! tag:unity3d.com,2011:
--- !u!114 &11400000
MonoBehaviour:
  m_ObjectHideFlags: 0
  m_CorrespondingSourceObject: {fileID: 0}
  m_PrefabInstance: {fileID: 0}
  m_PrefabAsset: {fileID: 0}
  m_GameObject: {fileID: 0}
  m_Enabled: 1
  m_EditorHideFlags: 0
  m_Script: {fileID: 11500000, guid: 0ba0abc45248e474e9dbc5316feea45e, type: 3}
  m_Name: 20
  m_EditorClassIdentifier: 
  question: "Kt\xF3ry z poni\u017Cszych NIE jest systemem operacyjnym bazuj\u0105cym
    na j\u0105drze Linux?"
  answers:
  - Linux Mint
  - Debian
  - Ubuntu
  - Pandora
  correctAnswer: 4
