%YAML 1.1
%TAG !u! tag:unity3d.com,2011:
--- !u!114 &11400000
MonoBehaviour:
  m_ObjectHideFlags: 0
  m_CorrespondingSourceObject: {fileID: 0}
  m_PrefabInstance: {fileID: 0}
  m_PrefabAsset: {fileID: 0}
  m_GameObject: {fileID: 0}
  m_Enabled: 1
  m_EditorHideFlags: 0
  m_Script: {fileID: 11500000, guid: 0ba0abc45248e474e9dbc5316feea45e, type: 3}
  m_Name: 37
  m_EditorClassIdentifier: 
  question: "Do czego s\u0142u\u017Cy komenda ping?"
  answers:
  - "Sprawdza po\u0142\u0105czenie sieciowe z innym urz\u0105dzeniem"
  - "Czy\u015Bci okno terminala"
  - "Wy\u015Bwietla obecnie dzia\u0142aj\u0105ce procesy"
  - Archiwizuje plik
  correctAnswer: 1
