%YAML 1.1
%TAG !u! tag:unity3d.com,2011:
--- !u!114 &11400000
MonoBehaviour:
  m_ObjectHideFlags: 0
  m_CorrespondingSourceObject: {fileID: 0}
  m_PrefabInstance: {fileID: 0}
  m_PrefabAsset: {fileID: 0}
  m_GameObject: {fileID: 0}
  m_Enabled: 1
  m_EditorHideFlags: 0
  m_Script: {fileID: 11500000, guid: 0ba0abc45248e474e9dbc5316feea45e, type: 3}
  m_Name: 52
  m_EditorClassIdentifier: 
  question: "Dlaczgo NASA przerzuci\u0142o si\u0119 z Windowsa na Linuxa?"
  answers:
  - "Jest przyjemniejszy w obs\u0142udze"
  - "Ci\u0119cia bud\u017Cetowe"
  - "Posiada wi\u0119cej przydatnych funkcji"
  - Jest bardziej stabilny i niezawodny
  correctAnswer: 4
